<?xml version="1.0"?>
<VTKFile type="Collection" version="0.1" byte_order="LittleEndian" compressor="vtkZLibDataCompressor">
  <Collection>
    <DataSet timestep="0" group="source3465" part="0" file="Temperatur_kerze/Temperatur_kerze_source3465T0000.vtm"/>
    <DataSet timestep="100" group="source3465" part="0" file="Temperatur_kerze/Temperatur_kerze_source3465T0000.vtm"/>
    <DataSet timestep="200" group="source3465" part="0" file="Temperatur_kerze/Temperatur_kerze_source3465T0001.vtm"/>
    <DataSet timestep="300" group="source3465" part="0" file="Temperatur_kerze/Temperatur_kerze_source3465T0002.vtm"/>
    <DataSet timestep="400" group="source3465" part="0" file="Temperatur_kerze/Temperatur_kerze_source3465T0003.vtm"/>
    <DataSet timestep="500" group="source3465" part="0" file="Temperatur_kerze/Temperatur_kerze_source3465T0004.vtm"/>
    <DataSet timestep="600" group="source3465" part="0" file="Temperatur_kerze/Temperatur_kerze_source3465T0005.vtm"/>
    <DataSet timestep="700" group="source3465" part="0" file="Temperatur_kerze/Temperatur_kerze_source3465T0006.vtm"/>
    <DataSet timestep="800" group="source3465" part="0" file="Temperatur_kerze/Temperatur_kerze_source3465T0007.vtm"/>
    <DataSet timestep="900" group="source3465" part="0" file="Temperatur_kerze/Temperatur_kerze_source3465T0008.vtm"/>
    <DataSet timestep="1000" group="source3465" part="0" file="Temperatur_kerze/Temperatur_kerze_source3465T0009.vtm"/>
    <DataSet timestep="1100" group="source3465" part="0" file="Temperatur_kerze/Temperatur_kerze_source3465T0010.vtm"/>
    <DataSet timestep="1200" group="source3465" part="0" file="Temperatur_kerze/Temperatur_kerze_source3465T0011.vtm"/>
    <DataSet timestep="1300" group="source3465" part="0" file="Temperatur_kerze/Temperatur_kerze_source3465T0012.vtm"/>
    <DataSet timestep="1400" group="source3465" part="0" file="Temperatur_kerze/Temperatur_kerze_source3465T0013.vtm"/>
    <DataSet timestep="1500" group="source3465" part="0" file="Temperatur_kerze/Temperatur_kerze_source3465T0014.vtm"/>
    <DataSet timestep="1600" group="source3465" part="0" file="Temperatur_kerze/Temperatur_kerze_source3465T0015.vtm"/>
    <DataSet timestep="1700" group="source3465" part="0" file="Temperatur_kerze/Temperatur_kerze_source3465T0016.vtm"/>
    <DataSet timestep="1800" group="source3465" part="0" file="Temperatur_kerze/Temperatur_kerze_source3465T0017.vtm"/>
    <DataSet timestep="1900" group="source3465" part="0" file="Temperatur_kerze/Temperatur_kerze_source3465T0018.vtm"/>
    <DataSet timestep="2000" group="source3465" part="0" file="Temperatur_kerze/Temperatur_kerze_source3465T0019.vtm"/>
    <DataSet timestep="2100" group="source3465" part="0" file="Temperatur_kerze/Temperatur_kerze_source3465T0020.vtm"/>
    <DataSet timestep="2200" group="source3465" part="0" file="Temperatur_kerze/Temperatur_kerze_source3465T0021.vtm"/>
    <DataSet timestep="2300" group="source3465" part="0" file="Temperatur_kerze/Temperatur_kerze_source3465T0022.vtm"/>
    <DataSet timestep="2400" group="source3465" part="0" file="Temperatur_kerze/Temperatur_kerze_source3465T0023.vtm"/>
    <DataSet timestep="2500" group="source3465" part="0" file="Temperatur_kerze/Temperatur_kerze_source3465T0024.vtm"/>
    <DataSet timestep="2600" group="source3465" part="0" file="Temperatur_kerze/Temperatur_kerze_source3465T0025.vtm"/>
    <DataSet timestep="2700" group="source3465" part="0" file="Temperatur_kerze/Temperatur_kerze_source3465T0026.vtm"/>
    <DataSet timestep="2800" group="source3465" part="0" file="Temperatur_kerze/Temperatur_kerze_source3465T0027.vtm"/>
    <DataSet timestep="2900" group="source3465" part="0" file="Temperatur_kerze/Temperatur_kerze_source3465T0028.vtm"/>
    <DataSet timestep="3000" group="source3465" part="0" file="Temperatur_kerze/Temperatur_kerze_source3465T0029.vtm"/>
    <DataSet timestep="3100" group="source3465" part="0" file="Temperatur_kerze/Temperatur_kerze_source3465T0030.vtm"/>
    <DataSet timestep="3200" group="source3465" part="0" file="Temperatur_kerze/Temperatur_kerze_source3465T0031.vtm"/>
    <DataSet timestep="3300" group="source3465" part="0" file="Temperatur_kerze/Temperatur_kerze_source3465T0032.vtm"/>
    <DataSet timestep="3400" group="source3465" part="0" file="Temperatur_kerze/Temperatur_kerze_source3465T0033.vtm"/>
    <DataSet timestep="3500" group="source3465" part="0" file="Temperatur_kerze/Temperatur_kerze_source3465T0034.vtm"/>
    <DataSet timestep="3600" group="source3465" part="0" file="Temperatur_kerze/Temperatur_kerze_source3465T0035.vtm"/>
    <DataSet timestep="3700" group="source3465" part="0" file="Temperatur_kerze/Temperatur_kerze_source3465T0036.vtm"/>
    <DataSet timestep="3800" group="source3465" part="0" file="Temperatur_kerze/Temperatur_kerze_source3465T0037.vtm"/>
    <DataSet timestep="3900" group="source3465" part="0" file="Temperatur_kerze/Temperatur_kerze_source3465T0038.vtm"/>
    <DataSet timestep="4000" group="source3465" part="0" file="Temperatur_kerze/Temperatur_kerze_source3465T0039.vtm"/>
    <DataSet timestep="4100" group="source3465" part="0" file="Temperatur_kerze/Temperatur_kerze_source3465T0040.vtm"/>
    <DataSet timestep="4200" group="source3465" part="0" file="Temperatur_kerze/Temperatur_kerze_source3465T0041.vtm"/>
    <DataSet timestep="4300" group="source3465" part="0" file="Temperatur_kerze/Temperatur_kerze_source3465T0042.vtm"/>
    <DataSet timestep="4400" group="source3465" part="0" file="Temperatur_kerze/Temperatur_kerze_source3465T0043.vtm"/>
    <DataSet timestep="4500" group="source3465" part="0" file="Temperatur_kerze/Temperatur_kerze_source3465T0044.vtm"/>
    <DataSet timestep="4600" group="source3465" part="0" file="Temperatur_kerze/Temperatur_kerze_source3465T0045.vtm"/>
    <DataSet timestep="4700" group="source3465" part="0" file="Temperatur_kerze/Temperatur_kerze_source3465T0046.vtm"/>
    <DataSet timestep="4800" group="source3465" part="0" file="Temperatur_kerze/Temperatur_kerze_source3465T0047.vtm"/>
    <DataSet timestep="4900" group="source3465" part="0" file="Temperatur_kerze/Temperatur_kerze_source3465T0048.vtm"/>
    <DataSet timestep="5000" group="source3465" part="0" file="Temperatur_kerze/Temperatur_kerze_source3465T0049.vtm"/>
    <DataSet timestep="5100" group="source3465" part="0" file="Temperatur_kerze/Temperatur_kerze_source3465T0049.vtm"/>
    <DataSet timestep="5200" group="source3465" part="0" file="Temperatur_kerze/Temperatur_kerze_source3465T0050.vtm"/>
    <DataSet timestep="5300" group="source3465" part="0" file="Temperatur_kerze/Temperatur_kerze_source3465T0051.vtm"/>
    <DataSet timestep="5400" group="source3465" part="0" file="Temperatur_kerze/Temperatur_kerze_source3465T0052.vtm"/>
    <DataSet timestep="5500" group="source3465" part="0" file="Temperatur_kerze/Temperatur_kerze_source3465T0053.vtm"/>
    <DataSet timestep="5600" group="source3465" part="0" file="Temperatur_kerze/Temperatur_kerze_source3465T0054.vtm"/>
    <DataSet timestep="5700" group="source3465" part="0" file="Temperatur_kerze/Temperatur_kerze_source3465T0055.vtm"/>
    <DataSet timestep="5800" group="source3465" part="0" file="Temperatur_kerze/Temperatur_kerze_source3465T0056.vtm"/>
    <DataSet timestep="5900" group="source3465" part="0" file="Temperatur_kerze/Temperatur_kerze_source3465T0057.vtm"/>
    <DataSet timestep="6000" group="source3465" part="0" file="Temperatur_kerze/Temperatur_kerze_source3465T0058.vtm"/>
    <DataSet timestep="6100" group="source3465" part="0" file="Temperatur_kerze/Temperatur_kerze_source3465T0059.vtm"/>
    <DataSet timestep="6200" group="source3465" part="0" file="Temperatur_kerze/Temperatur_kerze_source3465T0060.vtm"/>
    <DataSet timestep="6300" group="source3465" part="0" file="Temperatur_kerze/Temperatur_kerze_source3465T0061.vtm"/>
    <DataSet timestep="6400" group="source3465" part="0" file="Temperatur_kerze/Temperatur_kerze_source3465T0062.vtm"/>
    <DataSet timestep="6500" group="source3465" part="0" file="Temperatur_kerze/Temperatur_kerze_source3465T0063.vtm"/>
    <DataSet timestep="6600" group="source3465" part="0" file="Temperatur_kerze/Temperatur_kerze_source3465T0064.vtm"/>
    <DataSet timestep="6700" group="source3465" part="0" file="Temperatur_kerze/Temperatur_kerze_source3465T0065.vtm"/>
    <DataSet timestep="6800" group="source3465" part="0" file="Temperatur_kerze/Temperatur_kerze_source3465T0066.vtm"/>
    <DataSet timestep="6900" group="source3465" part="0" file="Temperatur_kerze/Temperatur_kerze_source3465T0067.vtm"/>
    <DataSet timestep="7000" group="source3465" part="0" file="Temperatur_kerze/Temperatur_kerze_source3465T0068.vtm"/>
    <DataSet timestep="7100" group="source3465" part="0" file="Temperatur_kerze/Temperatur_kerze_source3465T0069.vtm"/>
    <DataSet timestep="7200" group="source3465" part="0" file="Temperatur_kerze/Temperatur_kerze_source3465T0070.vtm"/>
    <DataSet timestep="7300" group="source3465" part="0" file="Temperatur_kerze/Temperatur_kerze_source3465T0071.vtm"/>
    <DataSet timestep="7400" group="source3465" part="0" file="Temperatur_kerze/Temperatur_kerze_source3465T0072.vtm"/>
    <DataSet timestep="7500" group="source3465" part="0" file="Temperatur_kerze/Temperatur_kerze_source3465T0073.vtm"/>
    <DataSet timestep="7600" group="source3465" part="0" file="Temperatur_kerze/Temperatur_kerze_source3465T0074.vtm"/>
    <DataSet timestep="7700" group="source3465" part="0" file="Temperatur_kerze/Temperatur_kerze_source3465T0075.vtm"/>
    <DataSet timestep="7800" group="source3465" part="0" file="Temperatur_kerze/Temperatur_kerze_source3465T0076.vtm"/>
    <DataSet timestep="7900" group="source3465" part="0" file="Temperatur_kerze/Temperatur_kerze_source3465T0077.vtm"/>
    <DataSet timestep="8000" group="source3465" part="0" file="Temperatur_kerze/Temperatur_kerze_source3465T0078.vtm"/>
    <DataSet timestep="8100" group="source3465" part="0" file="Temperatur_kerze/Temperatur_kerze_source3465T0079.vtm"/>
    <DataSet timestep="8200" group="source3465" part="0" file="Temperatur_kerze/Temperatur_kerze_source3465T0080.vtm"/>
    <DataSet timestep="8300" group="source3465" part="0" file="Temperatur_kerze/Temperatur_kerze_source3465T0081.vtm"/>
    <DataSet timestep="8400" group="source3465" part="0" file="Temperatur_kerze/Temperatur_kerze_source3465T0082.vtm"/>
    <DataSet timestep="8500" group="source3465" part="0" file="Temperatur_kerze/Temperatur_kerze_source3465T0083.vtm"/>
    <DataSet timestep="8600" group="source3465" part="0" file="Temperatur_kerze/Temperatur_kerze_source3465T0084.vtm"/>
    <DataSet timestep="8700" group="source3465" part="0" file="Temperatur_kerze/Temperatur_kerze_source3465T0085.vtm"/>
    <DataSet timestep="8800" group="source3465" part="0" file="Temperatur_kerze/Temperatur_kerze_source3465T0086.vtm"/>
    <DataSet timestep="8900" group="source3465" part="0" file="Temperatur_kerze/Temperatur_kerze_source3465T0087.vtm"/>
    <DataSet timestep="9000" group="source3465" part="0" file="Temperatur_kerze/Temperatur_kerze_source3465T0088.vtm"/>
    <DataSet timestep="9100" group="source3465" part="0" file="Temperatur_kerze/Temperatur_kerze_source3465T0089.vtm"/>
    <DataSet timestep="9200" group="source3465" part="0" file="Temperatur_kerze/Temperatur_kerze_source3465T0090.vtm"/>
    <DataSet timestep="9300" group="source3465" part="0" file="Temperatur_kerze/Temperatur_kerze_source3465T0091.vtm"/>
    <DataSet timestep="9400" group="source3465" part="0" file="Temperatur_kerze/Temperatur_kerze_source3465T0092.vtm"/>
    <DataSet timestep="9500" group="source3465" part="0" file="Temperatur_kerze/Temperatur_kerze_source3465T0093.vtm"/>
    <DataSet timestep="9600" group="source3465" part="0" file="Temperatur_kerze/Temperatur_kerze_source3465T0094.vtm"/>
    <DataSet timestep="9700" group="source3465" part="0" file="Temperatur_kerze/Temperatur_kerze_source3465T0095.vtm"/>
    <DataSet timestep="9800" group="source3465" part="0" file="Temperatur_kerze/Temperatur_kerze_source3465T0096.vtm"/>
    <DataSet timestep="9900" group="source3465" part="0" file="Temperatur_kerze/Temperatur_kerze_source3465T0097.vtm"/>
    <DataSet timestep="10000" group="source3465" part="0" file="Temperatur_kerze/Temperatur_kerze_source3465T0098.vtm"/>
    <DataSet timestep="10100" group="source3465" part="0" file="Temperatur_kerze/Temperatur_kerze_source3465T0099.vtm"/>
    <DataSet timestep="10200" group="source3465" part="0" file="Temperatur_kerze/Temperatur_kerze_source3465T0100.vtm"/>
    <DataSet timestep="10300" group="source3465" part="0" file="Temperatur_kerze/Temperatur_kerze_source3465T0101.vtm"/>
    <DataSet timestep="10400" group="source3465" part="0" file="Temperatur_kerze/Temperatur_kerze_source3465T0102.vtm"/>
    <DataSet timestep="10500" group="source3465" part="0" file="Temperatur_kerze/Temperatur_kerze_source3465T0103.vtm"/>
    <DataSet timestep="10600" group="source3465" part="0" file="Temperatur_kerze/Temperatur_kerze_source3465T0104.vtm"/>
    <DataSet timestep="10700" group="source3465" part="0" file="Temperatur_kerze/Temperatur_kerze_source3465T0105.vtm"/>
    <DataSet timestep="10800" group="source3465" part="0" file="Temperatur_kerze/Temperatur_kerze_source3465T0106.vtm"/>
    <DataSet timestep="10900" group="source3465" part="0" file="Temperatur_kerze/Temperatur_kerze_source3465T0107.vtm"/>
    <DataSet timestep="11000" group="source3465" part="0" file="Temperatur_kerze/Temperatur_kerze_source3465T0108.vtm"/>
    <DataSet timestep="11100" group="source3465" part="0" file="Temperatur_kerze/Temperatur_kerze_source3465T0109.vtm"/>
    <DataSet timestep="11200" group="source3465" part="0" file="Temperatur_kerze/Temperatur_kerze_source3465T0110.vtm"/>
    <DataSet timestep="11300" group="source3465" part="0" file="Temperatur_kerze/Temperatur_kerze_source3465T0111.vtm"/>
    <DataSet timestep="11400" group="source3465" part="0" file="Temperatur_kerze/Temperatur_kerze_source3465T0112.vtm"/>
    <DataSet timestep="11500" group="source3465" part="0" file="Temperatur_kerze/Temperatur_kerze_source3465T0113.vtm"/>
    <DataSet timestep="11600" group="source3465" part="0" file="Temperatur_kerze/Temperatur_kerze_source3465T0114.vtm"/>
    <DataSet timestep="11700" group="source3465" part="0" file="Temperatur_kerze/Temperatur_kerze_source3465T0115.vtm"/>
    <DataSet timestep="11800" group="source3465" part="0" file="Temperatur_kerze/Temperatur_kerze_source3465T0116.vtm"/>
    <DataSet timestep="11900" group="source3465" part="0" file="Temperatur_kerze/Temperatur_kerze_source3465T0117.vtm"/>
    <DataSet timestep="12000" group="source3465" part="0" file="Temperatur_kerze/Temperatur_kerze_source3465T0118.vtm"/>
    <DataSet timestep="12100" group="source3465" part="0" file="Temperatur_kerze/Temperatur_kerze_source3465T0119.vtm"/>
    <DataSet timestep="12200" group="source3465" part="0" file="Temperatur_kerze/Temperatur_kerze_source3465T0120.vtm"/>
    <DataSet timestep="12300" group="source3465" part="0" file="Temperatur_kerze/Temperatur_kerze_source3465T0121.vtm"/>
    <DataSet timestep="12400" group="source3465" part="0" file="Temperatur_kerze/Temperatur_kerze_source3465T0122.vtm"/>
    <DataSet timestep="12500" group="source3465" part="0" file="Temperatur_kerze/Temperatur_kerze_source3465T0123.vtm"/>
    <DataSet timestep="12600" group="source3465" part="0" file="Temperatur_kerze/Temperatur_kerze_source3465T0124.vtm"/>
    <DataSet timestep="12700" group="source3465" part="0" file="Temperatur_kerze/Temperatur_kerze_source3465T0125.vtm"/>
    <DataSet timestep="12800" group="source3465" part="0" file="Temperatur_kerze/Temperatur_kerze_source3465T0126.vtm"/>
    <DataSet timestep="12900" group="source3465" part="0" file="Temperatur_kerze/Temperatur_kerze_source3465T0127.vtm"/>
    <DataSet timestep="13000" group="source3465" part="0" file="Temperatur_kerze/Temperatur_kerze_source3465T0128.vtm"/>
    <DataSet timestep="13100" group="source3465" part="0" file="Temperatur_kerze/Temperatur_kerze_source3465T0129.vtm"/>
    <DataSet timestep="13200" group="source3465" part="0" file="Temperatur_kerze/Temperatur_kerze_source3465T0130.vtm"/>
    <DataSet timestep="13300" group="source3465" part="0" file="Temperatur_kerze/Temperatur_kerze_source3465T0131.vtm"/>
    <DataSet timestep="13400" group="source3465" part="0" file="Temperatur_kerze/Temperatur_kerze_source3465T0132.vtm"/>
    <DataSet timestep="13500" group="source3465" part="0" file="Temperatur_kerze/Temperatur_kerze_source3465T0133.vtm"/>
    <DataSet timestep="13600" group="source3465" part="0" file="Temperatur_kerze/Temperatur_kerze_source3465T0134.vtm"/>
    <DataSet timestep="13700" group="source3465" part="0" file="Temperatur_kerze/Temperatur_kerze_source3465T0135.vtm"/>
    <DataSet timestep="13800" group="source3465" part="0" file="Temperatur_kerze/Temperatur_kerze_source3465T0136.vtm"/>
    <DataSet timestep="13900" group="source3465" part="0" file="Temperatur_kerze/Temperatur_kerze_source3465T0137.vtm"/>
    <DataSet timestep="14000" group="source3465" part="0" file="Temperatur_kerze/Temperatur_kerze_source3465T0138.vtm"/>
    <DataSet timestep="14100" group="source3465" part="0" file="Temperatur_kerze/Temperatur_kerze_source3465T0139.vtm"/>
    <DataSet timestep="14200" group="source3465" part="0" file="Temperatur_kerze/Temperatur_kerze_source3465T0140.vtm"/>
    <DataSet timestep="14300" group="source3465" part="0" file="Temperatur_kerze/Temperatur_kerze_source3465T0141.vtm"/>
    <DataSet timestep="14400" group="source3465" part="0" file="Temperatur_kerze/Temperatur_kerze_source3465T0142.vtm"/>
    <DataSet timestep="14500" group="source3465" part="0" file="Temperatur_kerze/Temperatur_kerze_source3465T0143.vtm"/>
    <DataSet timestep="14600" group="source3465" part="0" file="Temperatur_kerze/Temperatur_kerze_source3465T0144.vtm"/>
    <DataSet timestep="14700" group="source3465" part="0" file="Temperatur_kerze/Temperatur_kerze_source3465T0145.vtm"/>
    <DataSet timestep="14800" group="source3465" part="0" file="Temperatur_kerze/Temperatur_kerze_source3465T0146.vtm"/>
    <DataSet timestep="14900" group="source3465" part="0" file="Temperatur_kerze/Temperatur_kerze_source3465T0147.vtm"/>
    <DataSet timestep="15000" group="source3465" part="0" file="Temperatur_kerze/Temperatur_kerze_source3465T0148.vtm"/>
    <DataSet timestep="15100" group="source3465" part="0" file="Temperatur_kerze/Temperatur_kerze_source3465T0149.vtm"/>
    <DataSet timestep="15200" group="source3465" part="0" file="Temperatur_kerze/Temperatur_kerze_source3465T0150.vtm"/>
    <DataSet timestep="15300" group="source3465" part="0" file="Temperatur_kerze/Temperatur_kerze_source3465T0151.vtm"/>
    <DataSet timestep="15400" group="source3465" part="0" file="Temperatur_kerze/Temperatur_kerze_source3465T0152.vtm"/>
    <DataSet timestep="15500" group="source3465" part="0" file="Temperatur_kerze/Temperatur_kerze_source3465T0153.vtm"/>
    <DataSet timestep="15600" group="source3465" part="0" file="Temperatur_kerze/Temperatur_kerze_source3465T0154.vtm"/>
    <DataSet timestep="15700" group="source3465" part="0" file="Temperatur_kerze/Temperatur_kerze_source3465T0155.vtm"/>
    <DataSet timestep="15800" group="source3465" part="0" file="Temperatur_kerze/Temperatur_kerze_source3465T0156.vtm"/>
    <DataSet timestep="15900" group="source3465" part="0" file="Temperatur_kerze/Temperatur_kerze_source3465T0157.vtm"/>
    <DataSet timestep="16000" group="source3465" part="0" file="Temperatur_kerze/Temperatur_kerze_source3465T0158.vtm"/>
    <DataSet timestep="16100" group="source3465" part="0" file="Temperatur_kerze/Temperatur_kerze_source3465T0159.vtm"/>
    <DataSet timestep="16200" group="source3465" part="0" file="Temperatur_kerze/Temperatur_kerze_source3465T0160.vtm"/>
    <DataSet timestep="16300" group="source3465" part="0" file="Temperatur_kerze/Temperatur_kerze_source3465T0161.vtm"/>
    <DataSet timestep="16400" group="source3465" part="0" file="Temperatur_kerze/Temperatur_kerze_source3465T0162.vtm"/>
    <DataSet timestep="16500" group="source3465" part="0" file="Temperatur_kerze/Temperatur_kerze_source3465T0163.vtm"/>
    <DataSet timestep="16600" group="source3465" part="0" file="Temperatur_kerze/Temperatur_kerze_source3465T0164.vtm"/>
    <DataSet timestep="16700" group="source3465" part="0" file="Temperatur_kerze/Temperatur_kerze_source3465T0165.vtm"/>
    <DataSet timestep="16800" group="source3465" part="0" file="Temperatur_kerze/Temperatur_kerze_source3465T0166.vtm"/>
    <DataSet timestep="16900" group="source3465" part="0" file="Temperatur_kerze/Temperatur_kerze_source3465T0167.vtm"/>
    <DataSet timestep="17000" group="source3465" part="0" file="Temperatur_kerze/Temperatur_kerze_source3465T0168.vtm"/>
    <DataSet timestep="17100" group="source3465" part="0" file="Temperatur_kerze/Temperatur_kerze_source3465T0169.vtm"/>
    <DataSet timestep="17200" group="source3465" part="0" file="Temperatur_kerze/Temperatur_kerze_source3465T0170.vtm"/>
    <DataSet timestep="17300" group="source3465" part="0" file="Temperatur_kerze/Temperatur_kerze_source3465T0171.vtm"/>
    <DataSet timestep="17400" group="source3465" part="0" file="Temperatur_kerze/Temperatur_kerze_source3465T0172.vtm"/>
    <DataSet timestep="17500" group="source3465" part="0" file="Temperatur_kerze/Temperatur_kerze_source3465T0173.vtm"/>
    <DataSet timestep="17600" group="source3465" part="0" file="Temperatur_kerze/Temperatur_kerze_source3465T0174.vtm"/>
    <DataSet timestep="17700" group="source3465" part="0" file="Temperatur_kerze/Temperatur_kerze_source3465T0175.vtm"/>
    <DataSet timestep="17800" group="source3465" part="0" file="Temperatur_kerze/Temperatur_kerze_source3465T0176.vtm"/>
    <DataSet timestep="17900" group="source3465" part="0" file="Temperatur_kerze/Temperatur_kerze_source3465T0177.vtm"/>
    <DataSet timestep="18000" group="source3465" part="0" file="Temperatur_kerze/Temperatur_kerze_source3465T0178.vtm"/>
    <DataSet timestep="18100" group="source3465" part="0" file="Temperatur_kerze/Temperatur_kerze_source3465T0179.vtm"/>
    <DataSet timestep="18200" group="source3465" part="0" file="Temperatur_kerze/Temperatur_kerze_source3465T0180.vtm"/>
    <DataSet timestep="18300" group="source3465" part="0" file="Temperatur_kerze/Temperatur_kerze_source3465T0181.vtm"/>
    <DataSet timestep="18400" group="source3465" part="0" file="Temperatur_kerze/Temperatur_kerze_source3465T0182.vtm"/>
    <DataSet timestep="18500" group="source3465" part="0" file="Temperatur_kerze/Temperatur_kerze_source3465T0183.vtm"/>
    <DataSet timestep="18600" group="source3465" part="0" file="Temperatur_kerze/Temperatur_kerze_source3465T0184.vtm"/>
    <DataSet timestep="18700" group="source3465" part="0" file="Temperatur_kerze/Temperatur_kerze_source3465T0185.vtm"/>
    <DataSet timestep="18800" group="source3465" part="0" file="Temperatur_kerze/Temperatur_kerze_source3465T0186.vtm"/>
    <DataSet timestep="18900" group="source3465" part="0" file="Temperatur_kerze/Temperatur_kerze_source3465T0187.vtm"/>
    <DataSet timestep="19000" group="source3465" part="0" file="Temperatur_kerze/Temperatur_kerze_source3465T0188.vtm"/>
    <DataSet timestep="19100" group="source3465" part="0" file="Temperatur_kerze/Temperatur_kerze_source3465T0189.vtm"/>
    <DataSet timestep="19200" group="source3465" part="0" file="Temperatur_kerze/Temperatur_kerze_source3465T0190.vtm"/>
    <DataSet timestep="19300" group="source3465" part="0" file="Temperatur_kerze/Temperatur_kerze_source3465T0191.vtm"/>
    <DataSet timestep="19400" group="source3465" part="0" file="Temperatur_kerze/Temperatur_kerze_source3465T0192.vtm"/>
    <DataSet timestep="19500" group="source3465" part="0" file="Temperatur_kerze/Temperatur_kerze_source3465T0193.vtm"/>
    <DataSet timestep="19600" group="source3465" part="0" file="Temperatur_kerze/Temperatur_kerze_source3465T0194.vtm"/>
    <DataSet timestep="19700" group="source3465" part="0" file="Temperatur_kerze/Temperatur_kerze_source3465T0195.vtm"/>
    <DataSet timestep="19800" group="source3465" part="0" file="Temperatur_kerze/Temperatur_kerze_source3465T0196.vtm"/>
    <DataSet timestep="19900" group="source3465" part="0" file="Temperatur_kerze/Temperatur_kerze_source3465T0197.vtm"/>
    <DataSet timestep="20000" group="source3465" part="0" file="Temperatur_kerze/Temperatur_kerze_source3465T0198.vtm"/>
    <DataSet timestep="20100" group="source3465" part="0" file="Temperatur_kerze/Temperatur_kerze_source3465T0199.vtm"/>
    <DataSet timestep="20200" group="source3465" part="0" file="Temperatur_kerze/Temperatur_kerze_source3465T0200.vtm"/>
    <DataSet timestep="20300" group="source3465" part="0" file="Temperatur_kerze/Temperatur_kerze_source3465T0201.vtm"/>
    <DataSet timestep="20400" group="source3465" part="0" file="Temperatur_kerze/Temperatur_kerze_source3465T0202.vtm"/>
    <DataSet timestep="20500" group="source3465" part="0" file="Temperatur_kerze/Temperatur_kerze_source3465T0203.vtm"/>
    <DataSet timestep="20600" group="source3465" part="0" file="Temperatur_kerze/Temperatur_kerze_source3465T0204.vtm"/>
    <DataSet timestep="20700" group="source3465" part="0" file="Temperatur_kerze/Temperatur_kerze_source3465T0205.vtm"/>
    <DataSet timestep="20800" group="source3465" part="0" file="Temperatur_kerze/Temperatur_kerze_source3465T0206.vtm"/>
    <DataSet timestep="20900" group="source3465" part="0" file="Temperatur_kerze/Temperatur_kerze_source3465T0207.vtm"/>
    <DataSet timestep="21000" group="source3465" part="0" file="Temperatur_kerze/Temperatur_kerze_source3465T0208.vtm"/>
    <DataSet timestep="21100" group="source3465" part="0" file="Temperatur_kerze/Temperatur_kerze_source3465T0209.vtm"/>
    <DataSet timestep="21200" group="source3465" part="0" file="Temperatur_kerze/Temperatur_kerze_source3465T0210.vtm"/>
    <DataSet timestep="21300" group="source3465" part="0" file="Temperatur_kerze/Temperatur_kerze_source3465T0211.vtm"/>
    <DataSet timestep="21400" group="source3465" part="0" file="Temperatur_kerze/Temperatur_kerze_source3465T0212.vtm"/>
    <DataSet timestep="21500" group="source3465" part="0" file="Temperatur_kerze/Temperatur_kerze_source3465T0213.vtm"/>
    <DataSet timestep="21600" group="source3465" part="0" file="Temperatur_kerze/Temperatur_kerze_source3465T0214.vtm"/>
    <DataSet timestep="21700" group="source3465" part="0" file="Temperatur_kerze/Temperatur_kerze_source3465T0215.vtm"/>
    <DataSet timestep="21800" group="source3465" part="0" file="Temperatur_kerze/Temperatur_kerze_source3465T0216.vtm"/>
    <DataSet timestep="21900" group="source3465" part="0" file="Temperatur_kerze/Temperatur_kerze_source3465T0217.vtm"/>
    <DataSet timestep="22000" group="source3465" part="0" file="Temperatur_kerze/Temperatur_kerze_source3465T0218.vtm"/>
    <DataSet timestep="22100" group="source3465" part="0" file="Temperatur_kerze/Temperatur_kerze_source3465T0219.vtm"/>
    <DataSet timestep="22200" group="source3465" part="0" file="Temperatur_kerze/Temperatur_kerze_source3465T0220.vtm"/>
    <DataSet timestep="22300" group="source3465" part="0" file="Temperatur_kerze/Temperatur_kerze_source3465T0221.vtm"/>
    <DataSet timestep="22400" group="source3465" part="0" file="Temperatur_kerze/Temperatur_kerze_source3465T0222.vtm"/>
    <DataSet timestep="22500" group="source3465" part="0" file="Temperatur_kerze/Temperatur_kerze_source3465T0223.vtm"/>
    <DataSet timestep="22600" group="source3465" part="0" file="Temperatur_kerze/Temperatur_kerze_source3465T0224.vtm"/>
    <DataSet timestep="22700" group="source3465" part="0" file="Temperatur_kerze/Temperatur_kerze_source3465T0225.vtm"/>
    <DataSet timestep="22800" group="source3465" part="0" file="Temperatur_kerze/Temperatur_kerze_source3465T0226.vtm"/>
    <DataSet timestep="22900" group="source3465" part="0" file="Temperatur_kerze/Temperatur_kerze_source3465T0227.vtm"/>
    <DataSet timestep="23000" group="source3465" part="0" file="Temperatur_kerze/Temperatur_kerze_source3465T0228.vtm"/>
    <DataSet timestep="23100" group="source3465" part="0" file="Temperatur_kerze/Temperatur_kerze_source3465T0229.vtm"/>
    <DataSet timestep="23200" group="source3465" part="0" file="Temperatur_kerze/Temperatur_kerze_source3465T0230.vtm"/>
    <DataSet timestep="23300" group="source3465" part="0" file="Temperatur_kerze/Temperatur_kerze_source3465T0231.vtm"/>
    <DataSet timestep="23400" group="source3465" part="0" file="Temperatur_kerze/Temperatur_kerze_source3465T0232.vtm"/>
    <DataSet timestep="23500" group="source3465" part="0" file="Temperatur_kerze/Temperatur_kerze_source3465T0233.vtm"/>
    <DataSet timestep="23600" group="source3465" part="0" file="Temperatur_kerze/Temperatur_kerze_source3465T0234.vtm"/>
    <DataSet timestep="23700" group="source3465" part="0" file="Temperatur_kerze/Temperatur_kerze_source3465T0235.vtm"/>
    <DataSet timestep="23800" group="source3465" part="0" file="Temperatur_kerze/Temperatur_kerze_source3465T0236.vtm"/>
    <DataSet timestep="23900" group="source3465" part="0" file="Temperatur_kerze/Temperatur_kerze_source3465T0237.vtm"/>
    <DataSet timestep="24000" group="source3465" part="0" file="Temperatur_kerze/Temperatur_kerze_source3465T0238.vtm"/>
    <DataSet timestep="24100" group="source3465" part="0" file="Temperatur_kerze/Temperatur_kerze_source3465T0239.vtm"/>
    <DataSet timestep="24200" group="source3465" part="0" file="Temperatur_kerze/Temperatur_kerze_source3465T0240.vtm"/>
    <DataSet timestep="24300" group="source3465" part="0" file="Temperatur_kerze/Temperatur_kerze_source3465T0241.vtm"/>
    <DataSet timestep="24400" group="source3465" part="0" file="Temperatur_kerze/Temperatur_kerze_source3465T0242.vtm"/>
    <DataSet timestep="24500" group="source3465" part="0" file="Temperatur_kerze/Temperatur_kerze_source3465T0243.vtm"/>
    <DataSet timestep="24600" group="source3465" part="0" file="Temperatur_kerze/Temperatur_kerze_source3465T0244.vtm"/>
    <DataSet timestep="24700" group="source3465" part="0" file="Temperatur_kerze/Temperatur_kerze_source3465T0245.vtm"/>
    <DataSet timestep="24800" group="source3465" part="0" file="Temperatur_kerze/Temperatur_kerze_source3465T0246.vtm"/>
    <DataSet timestep="24900" group="source3465" part="0" file="Temperatur_kerze/Temperatur_kerze_source3465T0247.vtm"/>
    <DataSet timestep="25000" group="source3465" part="0" file="Temperatur_kerze/Temperatur_kerze_source3465T0248.vtm"/>
    <DataSet timestep="25100" group="source3465" part="0" file="Temperatur_kerze/Temperatur_kerze_source3465T0249.vtm"/>
    <DataSet timestep="25200" group="source3465" part="0" file="Temperatur_kerze/Temperatur_kerze_source3465T0250.vtm"/>
    <DataSet timestep="25300" group="source3465" part="0" file="Temperatur_kerze/Temperatur_kerze_source3465T0251.vtm"/>
    <DataSet timestep="25400" group="source3465" part="0" file="Temperatur_kerze/Temperatur_kerze_source3465T0252.vtm"/>
    <DataSet timestep="25500" group="source3465" part="0" file="Temperatur_kerze/Temperatur_kerze_source3465T0253.vtm"/>
    <DataSet timestep="25600" group="source3465" part="0" file="Temperatur_kerze/Temperatur_kerze_source3465T0254.vtm"/>
    <DataSet timestep="25700" group="source3465" part="0" file="Temperatur_kerze/Temperatur_kerze_source3465T0255.vtm"/>
    <DataSet timestep="25800" group="source3465" part="0" file="Temperatur_kerze/Temperatur_kerze_source3465T0256.vtm"/>
    <DataSet timestep="25900" group="source3465" part="0" file="Temperatur_kerze/Temperatur_kerze_source3465T0257.vtm"/>
    <DataSet timestep="26000" group="source3465" part="0" file="Temperatur_kerze/Temperatur_kerze_source3465T0258.vtm"/>
    <DataSet timestep="26100" group="source3465" part="0" file="Temperatur_kerze/Temperatur_kerze_source3465T0259.vtm"/>
    <DataSet timestep="26200" group="source3465" part="0" file="Temperatur_kerze/Temperatur_kerze_source3465T0260.vtm"/>
    <DataSet timestep="26300" group="source3465" part="0" file="Temperatur_kerze/Temperatur_kerze_source3465T0261.vtm"/>
    <DataSet timestep="26400" group="source3465" part="0" file="Temperatur_kerze/Temperatur_kerze_source3465T0262.vtm"/>
    <DataSet timestep="26500" group="source3465" part="0" file="Temperatur_kerze/Temperatur_kerze_source3465T0263.vtm"/>
    <DataSet timestep="26600" group="source3465" part="0" file="Temperatur_kerze/Temperatur_kerze_source3465T0264.vtm"/>
    <DataSet timestep="26700" group="source3465" part="0" file="Temperatur_kerze/Temperatur_kerze_source3465T0265.vtm"/>
    <DataSet timestep="26800" group="source3465" part="0" file="Temperatur_kerze/Temperatur_kerze_source3465T0266.vtm"/>
    <DataSet timestep="26900" group="source3465" part="0" file="Temperatur_kerze/Temperatur_kerze_source3465T0267.vtm"/>
    <DataSet timestep="27000" group="source3465" part="0" file="Temperatur_kerze/Temperatur_kerze_source3465T0268.vtm"/>
    <DataSet timestep="27100" group="source3465" part="0" file="Temperatur_kerze/Temperatur_kerze_source3465T0269.vtm"/>
    <DataSet timestep="27200" group="source3465" part="0" file="Temperatur_kerze/Temperatur_kerze_source3465T0270.vtm"/>
    <DataSet timestep="27300" group="source3465" part="0" file="Temperatur_kerze/Temperatur_kerze_source3465T0271.vtm"/>
    <DataSet timestep="27400" group="source3465" part="0" file="Temperatur_kerze/Temperatur_kerze_source3465T0272.vtm"/>
    <DataSet timestep="27500" group="source3465" part="0" file="Temperatur_kerze/Temperatur_kerze_source3465T0273.vtm"/>
    <DataSet timestep="27600" group="source3465" part="0" file="Temperatur_kerze/Temperatur_kerze_source3465T0274.vtm"/>
    <DataSet timestep="27700" group="source3465" part="0" file="Temperatur_kerze/Temperatur_kerze_source3465T0275.vtm"/>
    <DataSet timestep="27800" group="source3465" part="0" file="Temperatur_kerze/Temperatur_kerze_source3465T0276.vtm"/>
    <DataSet timestep="27900" group="source3465" part="0" file="Temperatur_kerze/Temperatur_kerze_source3465T0277.vtm"/>
    <DataSet timestep="28000" group="source3465" part="0" file="Temperatur_kerze/Temperatur_kerze_source3465T0278.vtm"/>
    <DataSet timestep="28100" group="source3465" part="0" file="Temperatur_kerze/Temperatur_kerze_source3465T0279.vtm"/>
    <DataSet timestep="28200" group="source3465" part="0" file="Temperatur_kerze/Temperatur_kerze_source3465T0280.vtm"/>
    <DataSet timestep="28300" group="source3465" part="0" file="Temperatur_kerze/Temperatur_kerze_source3465T0281.vtm"/>
    <DataSet timestep="28400" group="source3465" part="0" file="Temperatur_kerze/Temperatur_kerze_source3465T0282.vtm"/>
    <DataSet timestep="28500" group="source3465" part="0" file="Temperatur_kerze/Temperatur_kerze_source3465T0283.vtm"/>
    <DataSet timestep="28600" group="source3465" part="0" file="Temperatur_kerze/Temperatur_kerze_source3465T0284.vtm"/>
    <DataSet timestep="28700" group="source3465" part="0" file="Temperatur_kerze/Temperatur_kerze_source3465T0285.vtm"/>
    <DataSet timestep="28800" group="source3465" part="0" file="Temperatur_kerze/Temperatur_kerze_source3465T0286.vtm"/>
    <DataSet timestep="28900" group="source3465" part="0" file="Temperatur_kerze/Temperatur_kerze_source3465T0287.vtm"/>
    <DataSet timestep="29000" group="source3465" part="0" file="Temperatur_kerze/Temperatur_kerze_source3465T0288.vtm"/>
    <DataSet timestep="29100" group="source3465" part="0" file="Temperatur_kerze/Temperatur_kerze_source3465T0289.vtm"/>
    <DataSet timestep="29200" group="source3465" part="0" file="Temperatur_kerze/Temperatur_kerze_source3465T0290.vtm"/>
    <DataSet timestep="29300" group="source3465" part="0" file="Temperatur_kerze/Temperatur_kerze_source3465T0291.vtm"/>
    <DataSet timestep="29400" group="source3465" part="0" file="Temperatur_kerze/Temperatur_kerze_source3465T0292.vtm"/>
    <DataSet timestep="29500" group="source3465" part="0" file="Temperatur_kerze/Temperatur_kerze_source3465T0293.vtm"/>
    <DataSet timestep="29600" group="source3465" part="0" file="Temperatur_kerze/Temperatur_kerze_source3465T0294.vtm"/>
    <DataSet timestep="29700" group="source3465" part="0" file="Temperatur_kerze/Temperatur_kerze_source3465T0295.vtm"/>
    <DataSet timestep="29800" group="source3465" part="0" file="Temperatur_kerze/Temperatur_kerze_source3465T0296.vtm"/>
    <DataSet timestep="29900" group="source3465" part="0" file="Temperatur_kerze/Temperatur_kerze_source3465T0297.vtm"/>
    <DataSet timestep="30000" group="source3465" part="0" file="Temperatur_kerze/Temperatur_kerze_source3465T0298.vtm"/>
    <DataSet timestep="30100" group="source3465" part="0" file="Temperatur_kerze/Temperatur_kerze_source3465T0299.vtm"/>
    <DataSet timestep="30200" group="source3465" part="0" file="Temperatur_kerze/Temperatur_kerze_source3465T0300.vtm"/>
    <DataSet timestep="30300" group="source3465" part="0" file="Temperatur_kerze/Temperatur_kerze_source3465T0301.vtm"/>
    <DataSet timestep="30400" group="source3465" part="0" file="Temperatur_kerze/Temperatur_kerze_source3465T0302.vtm"/>
    <DataSet timestep="30500" group="source3465" part="0" file="Temperatur_kerze/Temperatur_kerze_source3465T0303.vtm"/>
    <DataSet timestep="30600" group="source3465" part="0" file="Temperatur_kerze/Temperatur_kerze_source3465T0304.vtm"/>
    <DataSet timestep="30700" group="source3465" part="0" file="Temperatur_kerze/Temperatur_kerze_source3465T0305.vtm"/>
    <DataSet timestep="30800" group="source3465" part="0" file="Temperatur_kerze/Temperatur_kerze_source3465T0306.vtm"/>
    <DataSet timestep="30900" group="source3465" part="0" file="Temperatur_kerze/Temperatur_kerze_source3465T0307.vtm"/>
    <DataSet timestep="31000" group="source3465" part="0" file="Temperatur_kerze/Temperatur_kerze_source3465T0308.vtm"/>
    <DataSet timestep="31100" group="source3465" part="0" file="Temperatur_kerze/Temperatur_kerze_source3465T0309.vtm"/>
    <DataSet timestep="31200" group="source3465" part="0" file="Temperatur_kerze/Temperatur_kerze_source3465T0310.vtm"/>
    <DataSet timestep="31300" group="source3465" part="0" file="Temperatur_kerze/Temperatur_kerze_source3465T0311.vtm"/>
    <DataSet timestep="31400" group="source3465" part="0" file="Temperatur_kerze/Temperatur_kerze_source3465T0312.vtm"/>
    <DataSet timestep="31500" group="source3465" part="0" file="Temperatur_kerze/Temperatur_kerze_source3465T0313.vtm"/>
    <DataSet timestep="31600" group="source3465" part="0" file="Temperatur_kerze/Temperatur_kerze_source3465T0314.vtm"/>
    <DataSet timestep="31700" group="source3465" part="0" file="Temperatur_kerze/Temperatur_kerze_source3465T0315.vtm"/>
    <DataSet timestep="31800" group="source3465" part="0" file="Temperatur_kerze/Temperatur_kerze_source3465T0316.vtm"/>
    <DataSet timestep="31900" group="source3465" part="0" file="Temperatur_kerze/Temperatur_kerze_source3465T0317.vtm"/>
    <DataSet timestep="32000" group="source3465" part="0" file="Temperatur_kerze/Temperatur_kerze_source3465T0318.vtm"/>
    <DataSet timestep="32100" group="source3465" part="0" file="Temperatur_kerze/Temperatur_kerze_source3465T0319.vtm"/>
    <DataSet timestep="32200" group="source3465" part="0" file="Temperatur_kerze/Temperatur_kerze_source3465T0320.vtm"/>
    <DataSet timestep="32300" group="source3465" part="0" file="Temperatur_kerze/Temperatur_kerze_source3465T0321.vtm"/>
    <DataSet timestep="32400" group="source3465" part="0" file="Temperatur_kerze/Temperatur_kerze_source3465T0322.vtm"/>
    <DataSet timestep="32500" group="source3465" part="0" file="Temperatur_kerze/Temperatur_kerze_source3465T0323.vtm"/>
    <DataSet timestep="32600" group="source3465" part="0" file="Temperatur_kerze/Temperatur_kerze_source3465T0324.vtm"/>
    <DataSet timestep="32700" group="source3465" part="0" file="Temperatur_kerze/Temperatur_kerze_source3465T0325.vtm"/>
    <DataSet timestep="32800" group="source3465" part="0" file="Temperatur_kerze/Temperatur_kerze_source3465T0326.vtm"/>
    <DataSet timestep="32900" group="source3465" part="0" file="Temperatur_kerze/Temperatur_kerze_source3465T0327.vtm"/>
    <DataSet timestep="33000" group="source3465" part="0" file="Temperatur_kerze/Temperatur_kerze_source3465T0328.vtm"/>
    <DataSet timestep="33100" group="source3465" part="0" file="Temperatur_kerze/Temperatur_kerze_source3465T0329.vtm"/>
    <DataSet timestep="33200" group="source3465" part="0" file="Temperatur_kerze/Temperatur_kerze_source3465T0330.vtm"/>
    <DataSet timestep="33300" group="source3465" part="0" file="Temperatur_kerze/Temperatur_kerze_source3465T0331.vtm"/>
    <DataSet timestep="33400" group="source3465" part="0" file="Temperatur_kerze/Temperatur_kerze_source3465T0332.vtm"/>
    <DataSet timestep="33500" group="source3465" part="0" file="Temperatur_kerze/Temperatur_kerze_source3465T0333.vtm"/>
    <DataSet timestep="33600" group="source3465" part="0" file="Temperatur_kerze/Temperatur_kerze_source3465T0334.vtm"/>
    <DataSet timestep="33700" group="source3465" part="0" file="Temperatur_kerze/Temperatur_kerze_source3465T0335.vtm"/>
    <DataSet timestep="33800" group="source3465" part="0" file="Temperatur_kerze/Temperatur_kerze_source3465T0336.vtm"/>
  </Collection>
</VTKFile>
